ลบ junk file
find . -iname "._*" -delete


git update-index --assume-unchanged appsystem/config/config.php
git update-index --assume-unchanged appsystem/config/database.php
git update-index --assume-unchanged .htaccess




//Clear .DS_Store
find . -name '.DS_Store' -type f -delete


CHECK MAIL SERVER
==================

01 - เข้า server .15

>ssh webadmin@10.2.168.15
>password: crotondev
--------------------------------------------------------------------------------

02 - CHECK MAIL SERVER

>telnet smtp.gmail.com 587
--------------------------------------------------------------------------------

03 - authentication network command line

  sign in network
  curl -d "username=suchat.pan&pwd=0866734395" -H "Content-Type: application/x-www-form-urlencoded" -X POST http://1.1.1.2/webAuth/

  OR

  wget --quiet \
  --method POST \
  --header 'content-type: application/x-www-form-urlencoded' \
  --header 'cache-control: no-cache' \
  --body-data 'username=suchat.pan&pwd=0866734395' \
  --output-document \
  - http://1.1.1.2/webAuth/



  sign out network
  curl -H "Content-Type: application/x-www-form-urlencoded" -X POST http://1.1.1.2/logout/

--------------------------------------------------------------------------------

04 - CHECK MAIL SERVER

>telnet smtp.gmail.com 587

--------------------------------------------------------------------------------
